Graham’s Website - BreakingNewsStory
…
Rows: 134 Columns: 4
── Column specification ────────────────────────────────────────────────────────
Delimiter: ","
chr (1): locality
num (3): biden, trump, total_votes_2021_prez

ℹ Use `spec()` to retrieve the full column specification for this data.
ℹ Specify the column types or set `show_col_types = FALSE` to quiet this message.

# Calculate total votes for Biden and Trump

prez_2020

# A tibble: 134 × 4
   locality           biden trump total_votes_2021_prez
   <chr>              <dbl> <dbl>                 <dbl>
 1 Accomack County     7578  9172                 16962
 2 Albemarle County   42466 20804                 64657
 3 Alexandria City    66240 14544                 82508
 4 Alleghany County    2243  5859                  8203
 5 Amelia County       2411  5390                  7893
 6 Amherst County      5672 11041                 17005
 7 Appomattox County   2418  6702                  9268
 8 Arlington County  105344 22318                130699
 9 Augusta County     10840 30714                 42278
10 Bath County          646  1834                  2501
# ℹ 124 more rows

  biden_votes <- sum(prez_2020$biden) 
  trump_votes <- sum(prez_2020$trump) 

# Calculate the difference in votes between Biden and Trump
prez_2020

# A tibble: 134 × 4
   locality           biden trump total_votes_2021_prez
   <chr>              <dbl> <dbl>                 <dbl>
 1 Accomack County     7578  9172                 16962
 2 Albemarle County   42466 20804                 64657
 3 Alexandria City    66240 14544                 82508
 4 Alleghany County    2243  5859                  8203
 5 Amelia County       2411  5390                  7893
 6 Amherst County      5672 11041                 17005
 7 Appomattox County   2418  6702                  9268
 8 Arlington County  105344 22318                130699
 9 Augusta County     10840 30714                 42278
10 Bath County          646  1834                  2501
# ℹ 124 more rows

  vote_difference <- biden_votes - trump_votes

# Calculate the number of counties won by Biden and Trump
prez_2020  

# A tibble: 134 × 4
   locality           biden trump total_votes_2021_prez
   <chr>              <dbl> <dbl>                 <dbl>
 1 Accomack County     7578  9172                 16962
 2 Albemarle County   42466 20804                 64657
 3 Alexandria City    66240 14544                 82508
 4 Alleghany County    2243  5859                  8203
 5 Amelia County       2411  5390                  7893
 6 Amherst County      5672 11041                 17005
 7 Appomattox County   2418  6702                  9268
 8 Arlington County  105344 22318                130699
 9 Augusta County     10840 30714                 42278
10 Bath County          646  1834                  2501
# ℹ 124 more rows
…
